#
# CDDL HEADER START
#
# The contents of this file are subject to the terms of the
# Common Development and Distribution License (the License).
# You may not use this file except in compliance with the License.
#
# You can obtain a copy of the license at usr/src/CDDL.txt
# or http://www.opensolaris.org/os/licensing.
# See the License for the specific language governing permissions
# and limitations under the License.
#
# When distributing Covered Code, include this CDDL HEADER in each
# file and include the License file at usr/src/CDDL.txt.
# If applicable, add the following below this CDDL HEADER, with the
# fields enclosed by brackets [] replaced with your own identifying
# information: Portions Copyright [yyyy] [name of copyright owner]
#
# CDDL HEADER END
#

#
# Copyright 2008 Sun Microsystems, Inc.  All rights reserved.
# Use is subject to license terms.
#
# ident	"@(#)fault_mix_2.data	1.6	08/05/20 SMI"
#

DEF_UPATH	/usr/cluster/orbtest/repl_sample_ru
DEF_KPATH	/usr/cluster/orbtest/repl_sample_ru:/kernel/misc
DEF_UFILE	fi_driver
DEF_KFILE	fi_module
DEF_UNFILE	repl_sample_ru

SETUP
	SERVER	-n NODE_1 -m K -f mc_sema_server
	REBOOT_BEFORE

#
# Basic Mini-Transactions
#
# Faults needed:
# 	A - Fault on the primary before the invocation reaches the
# 	    primary.  After the HA Framework has committed to using a
#	    particular xdoor.  Client should succeed.
# 	B - Fault on the primary before the inovcation reaches the primary.
#	    Wait for CMM to reconfigure.  Client should succeed.
# 	C - Fault at the beginning of the invocation on the primary.  Client
#	    should succeed.
# 	D - Fault on the primary after invcation has completed, but before
# 	    the results can be reported to the client.  Client should succeed.
#	E - Fault the primary, and every other replica that becomes primary
#	    before they can reply to the client's invocation.  Client should
#	    return exception.  (XXX - Which one?)
#	F - Fault the client after the invocation has reached the primary
#
#
# Scenario 1 - (Server and Client on differing nodes, at all times)
# When the client and server are on separate nodes, the ORB gets involved on
# the remote invocation.
#

# Test 1
# Scenario 1, Fault A
# TEST 1
TEST	Basic Mini-Transaction (Scenario 1, Fault A)
	SERVER		-n NODE_1 -m K -f persist_store_v0
	SERVER		-n NODE_2 -m K -f ha_sample_server_v1
	SERVER		-n NODE_3 -m K -f ha_sample_server_v0
	CLIENT		-n NODE_1 -d NODE_2 -f fi_module_v0 basic_1_a
	SVC_SHUTDOWN	ha_sample_server
	GROUP		mini-transaction putback
	REQ_NODES	3
END

# Test 2
# Scenario 1, Fault B
# TEST 2
TEST    Basic Mini-Transaction (Scenario 1, Fault A)
        SERVER          -n NODE_1 -m K -f persist_store_v0
        SERVER          -n NODE_2 -m K -f ha_sample_server_v1
        SERVER          -n NODE_3 -m K -f ha_sample_server_v0
        CLIENT          -n NODE_1 -d NODE_2 -f fi_module_v0 basic_1_b
        SVC_SHUTDOWN    ha_sample_server
        GROUP           mini-transaction putback
        REQ_NODES       3
END

# Test 3
# Scenario 1, Fault C
# TEST 3
TEST	Basic Mini-Transaction (Scenario 1, Fault C)
	SERVER		-n NODE_1 -m K -f persist_store_v0
	SERVER		-n NODE_2 -m K -f ha_sample_server_v1
	SERVER		-n NODE_3 -m K -f ha_sample_server_v0
	CLIENT		-n NODE_1 -d NODE_2 -f fi_module_v0 basic_1_c
	SVC_SHUTDOWN	ha_sample_server
	GROUP		mini-transaction putback
	REQ_NODES	3
END

# Test 4
# Scenario 1, Fault D
# TEST 4
TEST	Basic Mini-Transaction (Scenario 1, Fault D)
	SERVER		-n NODE_1 -m K -f persist_store_v0
	SERVER		-n NODE_2 -m K -f ha_sample_server_v1
	SERVER		-n NODE_3 -m K -f ha_sample_server_v0
	CLIENT		-n NODE_1 -d NODE_2 -f fi_module_v0 basic_1_d
	SVC_SHUTDOWN	ha_sample_server
	GROUP		mini-transaction putback
	REQ_NODES	3
END

# Test 5
# Scenario 1, Fault E
# TEST 5
TEST	Basic Mini-Transaction (Scenario 1, Fault E)
	SERVER		-n NODE_1 -m K -f persist_store_v0
	SERVER		-n NODE_2 -m K -f ha_sample_server_v1
	SERVER		-n NODE_3 -m K -f ha_sample_server_v0
	CLIENT		-n NODE_1 -d "NODE_2 NODE_3" -f fi_module_v0 basic_1_e
	SVC_SHUTDOWN	ha_sample_server
	GROUP		mini-transaction putback
	REQ_NODES	3
END

# Test 6
# Scenario 1, Fault F
# TEST 6
TEST	Basic Mini-Transaction (Scenario 1, Fault F)
	SERVER		-n NODE_1 -m K -f persist_store_v0
	SERVER		-n NODE_2 -m K -f ha_sample_server_v1
	SERVER		-n NODE_3 -m K -f ha_sample_server_v0
	CLIENT		-n NODE_3 -d NODE_3 -x -f fi_module_v0 basic_1_f
	SVC_SHUTDOWN	ha_sample_server
	GROUP		mini-transaction putback
	REQ_NODES	3
END

#
# Scenario 2 - (Server and Client on same node)  (Primary node HW failure)
# When the server and client are originally on the same node, the invcation
# becomes a regular function call, therefore the fault points are in different
# places in the code.  Failing the primary in this case will lead to an orphaned
# invocation.  (What is the expected behavior in this case?).  (Does a retry
# occur?)
#

# Test 7
# Scenario 2, Fault A
# TEST 7
TEST	Basic Mini-Transaction (Scenario 2, Fault A)
	SERVER		-n NODE_1 -m K -f persist_store_v0
	SERVER		-n NODE_2 -m K -f ha_sample_server_v1
	SERVER		-n NODE_3 -m K -f ha_sample_server_v0
	CLIENT		-n NODE_2 -d NODE_2 -x -f fi_module_v1 basic_2_a
	SVC_SHUTDOWN	ha_sample_server
	GROUP		mini-transaction
	REQ_NODES	3
	SKIP		U
END

# Test 8
# Scenario 2, Fault C
# TEST 8
TEST	Basic Mini-Transaction (Scenario 2, Fault C)
	SERVER		-n NODE_1 -m K -f persist_store_v0
	SERVER		-n NODE_2 -m K -f ha_sample_server_v1
	SERVER		-n NODE_3 -m K -f ha_sample_server_v0
	CLIENT		-n NODE_2 -d NODE_2 -x -f fi_module_v1 basic_2_c
	SVC_SHUTDOWN	ha_sample_server
	GROUP		mini-transaction
	REQ_NODES	3
END

#
# Scenario 3 - (Server and client end up on same node)
# When the server and client end up on same node, we end up doing local
# invocations on the retry
#

# Test 9
# Scenario 3, Fault A
# TEST 9
TEST	Basic Mini-Transaction (Scenario 3, Fault A)
	SERVER		-n NODE_1 -m K -f persist_store_v0
	SERVER		-n NODE_2 -m K -f ha_sample_server_v1
	SERVER		-n NODE_3 -m K -f ha_sample_server_v0
	CLIENT		-n NODE_3 -d NODE_2 -f fi_module_v0 basic_3_a
	SVC_SHUTDOWN	ha_sample_server
	GROUP		mini-transaction
	REQ_NODES	3
END

# Test 10
# Scenario 3, Fault B
# TEST 10
TEST	Basic Mini-Transaction (Scenario 3, Fault B)
	SERVER		-n NODE_1 -m K -f persist_store_v0
	SERVER		-n NODE_2 -m K -f ha_sample_server_v1
	SERVER		-n NODE_3 -m K -f ha_sample_server_v0
	CLIENT		-n NODE_3 -d NODE_2 -f fi_module_v0 basic_3_b
	SVC_SHUTDOWN	ha_sample_server
	GROUP		mini-transaction
	REQ_NODES	3
END

# Test 11
# Scenario 3, Fault C
# TEST 11
TEST	Basic Mini-Transaction (Scenario 3, Fault C)
	SERVER		-n NODE_1 -m K -f persist_store_v0
	SERVER		-n NODE_2 -m K -f ha_sample_server_v1
	SERVER		-n NODE_3 -m K -f ha_sample_server_v0
	CLIENT		-n NODE_3 -d NODE_2 -f fi_module_v0 basic_3_c
	SVC_SHUTDOWN	ha_sample_server
	GROUP		mini-transaction
	REQ_NODES	3
END

# Test 12
# Scenario 3, Fault D
# TEST 12
TEST	Basic Mini-Transaction (Scenario 3, Fault D)
	SERVER		-n NODE_1 -m K -f persist_store_v0
	SERVER		-n NODE_2 -m K -f ha_sample_server_v1
	SERVER		-n NODE_3 -m K -f ha_sample_server_v0
	CLIENT		-n NODE_3 -d NODE_2 -f fi_module_v0 basic_3_d
	SVC_SHUTDOWN	ha_sample_server
	GROUP		mini-transaction
	REQ_NODES	3
END

#
# One-Phase Idempotent Mini-Transactions
#
#
# Faults needed:
#	A - Fault on the primary before the invocation reaches the
#	    primary. (Before the CMM marks the node down)
#	B - Fault on the primary before the inovcation reaches the primary.
#	    (After the CMM marks the node down)
#	C - Fault at the beginning of the invocation on the primary
#	D - Fault on secondary before checkpoint is delivered, but after
#	    primary has initiated checkpointing.
#	E - Fault on secondary after checkpoint is received but not completed
#	F - Fault on all the secondaries after checkpoint is received.
#	G - Fault on secondary after checkpoint has been processed.
#	H - Fault on the primary after the invocation has completed but before
#	    the  results can be reported to the client.
#	I - Fault on the primary and every secondary that becomes a primary
#	    before they can report results to the client's invocation.
#
# Scenario 1 - (No Secondaries)
# This test is not very interesting, but it must exist for completenes.  An
# HA service should be able to checkpoint without secondaries.  (Expect success)
# In this scenario Fault A, and B are not faults, just regular invocations.
#

# Test 13
# Scenario 1, Fault A
# TEST 13
TEST	One-Phase Idempotent Mini-Transaction (Scenario 1, Fault A)
	SERVER		-n NODE_1 -m K -f persist_store_v0
	SERVER		-n NODE_2 -m K -f ha_sample_server_v1
	SERVER		-n NODE_3 -m K -f ha_sample_server_v0
	CLIENT		-n NODE_1 -f fi_module_v0 one_phase_idempotent_1_a
	SVC_SHUTDOWN	ha_sample_server
	GROUP		mini-transaction
	REQ_NODES	3
END

# Test 14
# Scenario 1, Fault B
# TEST 14
TEST	One-Phase Idempotent Mini-Transaction (Scenario 1, Fault B)
	SERVER		-n NODE_1 -m K -f persist_store_v0
	SERVER		-n NODE_2 -m K -f ha_sample_server_v1
	SERVER		-n NODE_3 -m K -f ha_sample_server_v0
	CLIENT		-n NODE_1 -f fi_module_v0 one_phase_idempotent_1_b
	SVC_SHUTDOWN	ha_sample_server
	GROUP		mini-transaction
	REQ_NODES	3
END

# Test 15
# Scenario 1, Fault I
# TEST 15
TEST	One-Phase Idempotent Mini-Transaction (Scenario 1, Fault I)
	SERVER		-n NODE_1 -m K -f persist_store_v0
	SERVER		-n NODE_2 -m K -f ha_sample_server_v1
	CLIENT		-n NODE_1 -d NODE_2 -f fi_module_v0 one_phase_idempotent_1_i
	SVC_SHUTDOWN	ha_sample_server
	GROUP		mini-transaction
	REQ_NODES	2
END

#
# Scenario 2 - (1 Secondary)
# In this case the failure of 1 secondary will leave the primary alone in the HA
# service.  Checkpoint framework code should not panic.
# 

# Test 16
# Scenario 2, Fault A
# TEST 16
TEST	One-Phase Idempotent Mini-Transaction (Scenario 2, Fault A)
	SERVER		-n NODE_1 -m K -f persist_store_v0
	SERVER		-n NODE_2 -m K -f ha_sample_server_v1
	SERVER		-n NODE_3 -m K -f ha_sample_server_v0
	CLIENT		-n NODE_1 -d NODE_2 -f fi_module_v0 one_phase_idempotent_2_a
	SVC_SHUTDOWN	ha_sample_server
	GROUP		mini-transaction
	REQ_NODES	3
END

# Test 17
# Scenario 2, Fault B
# TEST 17
TEST	One-Phase Idempotent Mini-Transaction (Scenario 2, Fault B)
	SERVER		-n NODE_1 -m K -f persist_store_v0
	SERVER		-n NODE_2 -m K -f ha_sample_server_v1
	SERVER		-n NODE_3 -m K -f ha_sample_server_v0
	CLIENT		-n NODE_1 -d NODE_2 -f fi_module_v0 one_phase_idempotent_2_b
	SVC_SHUTDOWN	ha_sample_server
	GROUP		mini-transaction
	REQ_NODES	3
END

# Test 18
# Scenario 2, Fault C
# TEST 18
TEST	One-Phase Idempotent Mini-Transaction (Scenario 2, Fault C)
	SERVER		-n NODE_1 -m K -f persist_store_v0
	SERVER		-n NODE_2 -m K -f ha_sample_server_v1
	SERVER		-n NODE_3 -m K -f ha_sample_server_v0
	CLIENT		-n NODE_1 -d NODE_2 -f fi_module_v0 one_phase_idempotent_2_c
	SVC_SHUTDOWN	ha_sample_server
	GROUP		mini-transaction
	REQ_NODES	3
END

# Test 19
# Scenario 2, Fault D
# TEST 19
TEST	One-Phase Idempotent Mini-Transaction (Scenario 2, Fault D)
	SERVER		-n NODE_1 -m K -f persist_store_v0
	SERVER		-n NODE_2 -m K -f ha_sample_server_v1
	SERVER		-n NODE_3 -m K -f ha_sample_server_v0
	CLIENT		-n NODE_1 -d NODE_3 -f fi_module_v0 one_phase_idempotent_2_d
	SVC_SHUTDOWN	ha_sample_server
	GROUP		mini-transaction
	REQ_NODES	3
END

# Test 20
# Scenario 2, Fault E
# TEST 20
TEST	One-Phase Idempotent Mini-Transaction (Scenario 2, Fault E)
	SERVER		-n NODE_1 -m K -f persist_store_v0
	SERVER		-n NODE_2 -m K -f ha_sample_server_v1
	SERVER		-n NODE_3 -m K -f ha_sample_server_v0
	CLIENT		-n NODE_1 -d NODE_3 -f fi_module_v0 one_phase_idempotent_2_e
	SVC_SHUTDOWN	ha_sample_server
	GROUP		mini-transaction
	REQ_NODES	3
	# SKIP		-r "BugId: 4154127" U UN K32 K64
END

# Test 21
# Scenario 2, Fault G
# TEST 21
TEST	One-Phase Idempotent Mini-Transaction (Scenario 2, Fault G)
	SERVER		-n NODE_1 -m K -f persist_store_v0
	SERVER		-n NODE_2 -m K -f ha_sample_server_v1
	SERVER		-n NODE_3 -m K -f ha_sample_server_v0
	CLIENT		-n NODE_1 -d NODE_3 -f fi_module_v0 one_phase_idempotent_2_g
	SVC_SHUTDOWN	ha_sample_server
	GROUP		mini-transaction
	REQ_NODES	3
END

# Test 22
# Scenario 2, Fault H
# TEST 22
TEST	One-Phase Idempotent Mini-Transaction (Scenario 2, Fault H)
	SERVER		-n NODE_1 -m K -f persist_store_v0
	SERVER		-n NODE_2 -m K -f ha_sample_server_v1
	SERVER		-n NODE_3 -m K -f ha_sample_server_v0
	CLIENT		-n NODE_1 -d NODE_2 -f fi_module_v0 one_phase_idempotent_2_h
	SVC_SHUTDOWN	ha_sample_server
	GROUP		mini-transaction
	REQ_NODES	3
END

# Test 23
# Scenario 2, Fault I
# TEST 23
TEST	One-Phase Idempotent Mini-Transaction (Scenario 2, Fault I)
	SERVER		-n NODE_1 -m K -f persist_store_v0
	SERVER		-n NODE_2 -m K -f ha_sample_server_v1
	SERVER		-n NODE_3 -m K -f ha_sample_server_v0
	CLIENT		-n NODE_1 -d "NODE_2 NODE_3" -f fi_module_v0 one_phase_idempotent_2_i
	SVC_SHUTDOWN	ha_sample_server
	GROUP		mini-transaction
	REQ_NODES	3
END


#
# Scenario 3 - (2+ Secondaries)
# In this case we expect the checkpoint to succeed without a problem.  Although
# we'll be faulting one of the secondaries at different steps of the process,
# the checkpoint should succeed, and the invocation should succeed.
#
 
# Test 24
# Scenario 3, Fault A
# TEST 24
TEST	One-Phase Idempotent Mini-Transaction (Scenario 3, Fault A)
	SERVER		-n NODE_1 -m K -f persist_store_v0
	SERVER		-n NODE_2 -m K -f ha_sample_server_v1
	SERVER		-n NODE_3 -m K -f ha_sample_server_v0
	SERVER		-n NODE_4 -m K -f ha_sample_server_v1
	CLIENT		-n NODE_1 -d NODE_2 -f fi_module_v0 one_phase_idempotent_3_a
	SVC_SHUTDOWN	ha_sample_server
	GROUP		mini-transaction
	REQ_NODES	4
END
 
# Test 25
# Scenario 3, Fault B
# TEST 25
TEST	One-Phase Idempotent Mini-Transaction (Scenario 3, Fault B)
	SERVER		-n NODE_1 -m K -f persist_store_v0
	SERVER		-n NODE_2 -m K -f ha_sample_server_v1
	SERVER		-n NODE_3 -m K -f ha_sample_server_v0
	SERVER		-n NODE_4 -m K -f ha_sample_server_v1
	CLIENT		-n NODE_1 -d NODE_2 -f fi_module_v0 one_phase_idempotent_3_b
	SVC_SHUTDOWN	ha_sample_server
	GROUP		mini-transaction
	REQ_NODES	4
END

# Test 26
# Scenario 3, Fault C
# TEST 26
TEST	One-Phase Idempotent Mini-Transaction (Scenario 3, Fault C)
	SERVER		-n NODE_1 -m K -f persist_store_v0
	SERVER		-n NODE_2 -m K -f ha_sample_server_v1
	SERVER		-n NODE_3 -m K -f ha_sample_server_v0
	SERVER		-n NODE_4 -m K -f ha_sample_server_v1
	CLIENT		-n NODE_1 -d NODE_2 -f fi_module_v0 one_phase_idempotent_3_c
	SVC_SHUTDOWN	ha_sample_server
	GROUP		mini-transaction
	REQ_NODES	4
END

# Test 27
# Scenario 3, Fault D
# TEST 27
TEST	One-Phase Idempotent Mini-Transaction (Scenario 3, Fault D)
	SERVER		-n NODE_1 -m K -f persist_store_v0
	SERVER		-n NODE_2 -m K -f ha_sample_server_v1
	SERVER		-n NODE_3 -m K -f ha_sample_server_v0
	SERVER		-n NODE_4 -m K -f ha_sample_server_v1
	CLIENT		-n NODE_1 -d NODE_3 -f fi_module_v0 one_phase_idempotent_3_d
	SVC_SHUTDOWN	ha_sample_server
	GROUP		mini-transaction
	REQ_NODES	4
END

# Test 28
# Scenario 3, Fault E
# TEST 28
TEST	One-Phase Idempotent Mini-Transaction (Scenario 3, Fault E)
	SERVER		-n NODE_1 -m K -f persist_store_v0
	SERVER		-n NODE_2 -m K -f ha_sample_server_v1
	SERVER		-n NODE_3 -m K -f ha_sample_server_v0
	SERVER		-n NODE_4 -m K -f ha_sample_server_v1
	CLIENT		-n NODE_1 -d NODE_3 -f fi_module_v0 one_phase_idempotent_3_e
	SVC_SHUTDOWN	ha_sample_server
	GROUP		mini-transaction
	REQ_NODES	4
END

# Test 29
# Scenario 3, Fault F
# TEST 29
TEST	One-Phase Idempotent Mini-Transaction (Scenario 3, Fault F)
	SERVER		-n NODE_1 -m K -f persist_store_v0
	SERVER		-n NODE_2 -m K -f ha_sample_server_v1
	SERVER		-n NODE_3 -m K -f ha_sample_server_v0
	SERVER		-n NODE_4 -m K -f ha_sample_server_v1
	CLIENT		-n NODE_1 -d "NODE_3 NODE_4" -f fi_module_v0 one_phase_idempotent_3_f
	SVC_SHUTDOWN	ha_sample_server
	GROUP		mini-transaction
	REQ_NODES	4
END

# Test 30
# Scenario 3, Fault G
# TEST 30
TEST	One-Phase Idempotent Mini-Transaction (Scenario 3, Fault G)
	SERVER		-n NODE_1 -m K -f persist_store_v0
	SERVER		-n NODE_2 -m K -f ha_sample_server_v1
	SERVER		-n NODE_3 -m K -f ha_sample_server_v0
	SERVER		-n NODE_4 -m K -f ha_sample_server_v1
	CLIENT		-n NODE_1 -d NODE_3 -f fi_module_v0 one_phase_idempotent_3_g
	SVC_SHUTDOWN	ha_sample_server
	GROUP		mini-transaction
	REQ_NODES	4
END

# Test 31
# Scenario 3, Fault H
# TEST 31
TEST	One-Phase Idempotent Mini-Transaction (Scenario 3, Fault H)
	SERVER		-n NODE_1 -m K -f persist_store_v0
	SERVER		-n NODE_2 -m K -f ha_sample_server_v1
	SERVER		-n NODE_3 -m K -f ha_sample_server_v0
	SERVER		-n NODE_4 -m K -f ha_sample_server_v1
	CLIENT		-n NODE_1 -d NODE_2 -f fi_module_v0 one_phase_idempotent_3_h
	SVC_SHUTDOWN	ha_sample_server
	GROUP		mini-transaction
	REQ_NODES	4
END

# Test 32
# Scenario 3, Fault I
# TEST 32
TEST	One-Phase Idempotent Mini-Transaction (Scenario 3, Fault I)
	SERVER		-n NODE_1 -m K -f persist_store_v0
	SERVER		-n NODE_2 -m K -f ha_sample_server_v1
	SERVER		-n NODE_3 -m K -f ha_sample_server_v0
	SERVER		-n NODE_4 -m K -f ha_sample_server_v1
	CLIENT		-n NODE_1 -d "NODE_2 NODE_3 NODE_4" -f fi_module_v0 one_phase_idempotent_3_i
	SVC_SHUTDOWN	ha_sample_server
	GROUP		mini-transaction
	REQ_NODES	4
END

#
# One-Phase Non-Idempotent Mini Transactions
#
#
# Faults needed:
#	A - Fault on the primary before the invocation reaches the
#	    primary. (Before the CMM marks the node down)
#	B - Fault on the primary before the inovcation reaches the primary.
#	    (After the CMM marks the node down)
#	C - Fault at the beginning of the invocation on the primary
#	D - Fault on secondary before checkpoint is delivered, but after
#	    primary has initiated checkpointing.
#	E - Fault on secondary after checkpoint is received but not completed
#	F - Fault on all the secondaries after checkpoint is received.
#	G - Fault on secondary after checkpoint has been processed.
#	H - Fault on the primary after the invocation has completed but before
#	    the  results can be reported to the client.
#	I - Fault on the primary and every secondary that becomes a primary
#	    before they can report results to the client's invocation.
#
# Scenario 1 - (No Secondaries)
# This test is not very interesting, but it must exist for completenes.  An
# HA service should be able to checkpoint without secondaries.  (Expect success)
# In this scenario Fault A, and B are not faults, just regular invocations.
#

# Test 33
# Scenario 1, Fault A
# TEST 33
TEST	One-Phase Non-Idempotent Mini-Transaction (Scenario 1, Fault A)
	SERVER		-n NODE_1 -m K -f persist_store_v0
	SERVER		-n NODE_2 -m K -f ha_sample_server_v1
	SERVER		-n NODE_3 -m K -f ha_sample_server_v0
	CLIENT		-n NODE_1 -f fi_module_v0 one_phase_non_idempotent_1_a
	SVC_SHUTDOWN	ha_sample_server
	GROUP		mini-transaction
	REQ_NODES	3
END

# Test 34
# Scenario 1, Fault B
# TEST 34
TEST	One-Phase Non-Idempotent Mini-Transaction (Scenario 1, Fault B)
	SERVER		-n NODE_1 -m K -f persist_store_v0
	SERVER		-n NODE_2 -m K -f ha_sample_server_v1
	SERVER		-n NODE_3 -m K -f ha_sample_server_v0
	CLIENT		-n NODE_1 -f fi_module_v0 one_phase_non_idempotent_1_b
	SVC_SHUTDOWN	ha_sample_server
	GROUP		mini-transaction
	REQ_NODES	3
END

# Test 35
# Scenario 1, Fault I
# TEST 35
TEST	One-Phase Non-Idempotent Mini-Transaction (Scenario 1, Fault I)
	SERVER		-n NODE_1 -m K -f persist_store_v0
	SERVER		-n NODE_2 -m K -f ha_sample_server_v1
	CLIENT		-n NODE_1 -d NODE_2 -f fi_module_v0 one_phase_non_idempotent_1_i
	SVC_SHUTDOWN	ha_sample_server
	GROUP		mini-transaction
	REQ_NODES	2
END

#
# Scenario 2 - (1 Secondary)
# In this case the failure of 1 secondary will leave the primary alone in the HA
# service.
# 

# Test 36
# Scenario 2, Fault A
# TEST 36
TEST	One-Phase Non-Idempotent Mini-Transaction (Scenario 2, Fault A)
	SERVER		-n NODE_1 -m K -f persist_store_v0
	SERVER		-n NODE_2 -m K -f ha_sample_server_v1
	SERVER		-n NODE_3 -m K -f ha_sample_server_v0
	CLIENT		-n NODE_1 -d NODE_2 -f fi_module_v0 one_phase_non_idempotent_2_a
	SVC_SHUTDOWN	ha_sample_server
	GROUP		mini-transaction putback
	REQ_NODES	3
END

# Test 37
# Scenario 2, Fault B
# TEST 37
TEST	One-Phase Non-Idempotent Mini-Transaction (Scenario 2, Fault B)
	SERVER		-n NODE_1 -m K -f persist_store_v0
	SERVER		-n NODE_2 -m K -f ha_sample_server_v1
	SERVER		-n NODE_3 -m K -f ha_sample_server_v0
	CLIENT		-n NODE_1 -d NODE_2 -f fi_module_v0 one_phase_non_idempotent_2_b
	SVC_SHUTDOWN	ha_sample_server
	GROUP		mini-transaction putback
	REQ_NODES	3
END

# Test 38
# Scenario 2, Fault C
# TEST 38
TEST	One-Phase Non-Idempotent Mini-Transaction (Scenario 2, Fault C)
	SERVER		-n NODE_1 -m K -f persist_store_v0
	SERVER		-n NODE_2 -m K -f ha_sample_server_v1
	SERVER		-n NODE_3 -m K -f ha_sample_server_v0
	CLIENT		-n NODE_1 -d NODE_2 -f fi_module_v0 one_phase_non_idempotent_2_c
	SVC_SHUTDOWN	ha_sample_server
	GROUP		mini-transaction putback
	REQ_NODES	3
END

# Test 39
# Scenario 2, Fault D
# TEST 39
TEST	One-Phase Non-Idempotent Mini-Transaction (Scenario 2, Fault D)
	SERVER		-n NODE_1 -m K -f persist_store_v0
	SERVER		-n NODE_2 -m K -f ha_sample_server_v1
	SERVER		-n NODE_3 -m K -f ha_sample_server_v0
	CLIENT		-n NODE_1 -d NODE_3 -f fi_module_v0 one_phase_non_idempotent_2_d
	SVC_SHUTDOWN	ha_sample_server
	GROUP		mini-transaction putback
	REQ_NODES	3
END

# Test 40
# Scenario 2, Fault E
# TEST 40
TEST	One-Phase Non-Idempotent Mini-Transaction (Scenario 2, Fault E)
	SERVER		-n NODE_1 -m K -f persist_store_v0
	SERVER		-n NODE_2 -m K -f ha_sample_server_v1
	SERVER		-n NODE_3 -m K -f ha_sample_server_v0
	CLIENT		-n NODE_1 -d NODE_3 -f fi_module_v0 one_phase_non_idempotent_2_e
	SVC_SHUTDOWN	ha_sample_server
	GROUP		mini-transaction putback
	REQ_NODES	3
END

# Test 41
# Scenario 2, Fault G
# TEST 41
TEST	One-Phase Non-Idempotent Mini-Transaction (Scenario 2, Fault G)
	SERVER		-n NODE_1 -m K -f persist_store_v0
	SERVER		-n NODE_2 -m K -f ha_sample_server_v1
	SERVER		-n NODE_3 -m K -f ha_sample_server_v0
	CLIENT		-n NODE_1 -d NODE_3 -f fi_module_v0 one_phase_non_idempotent_2_g
	SVC_SHUTDOWN	ha_sample_server
	GROUP		mini-transaction putback
	REQ_NODES	3
END

# Test 42
# Scenario 2, Fault H
# TEST 42
TEST	One-Phase Non-Idempotent Mini-Transaction (Scenario 2, Fault H)
	SERVER		-n NODE_1 -m K -f persist_store_v0
	SERVER		-n NODE_2 -m K -f ha_sample_server_v1
	SERVER		-n NODE_3 -m K -f ha_sample_server_v0
	CLIENT		-n NODE_1 -d NODE_2 -f fi_module_v0 one_phase_non_idempotent_2_h
	SVC_SHUTDOWN	ha_sample_server
	GROUP		mini-transaction putback
	REQ_NODES	3
END

# Test 43
# Scenario 2, Fault I
# TEST 43
TEST	One-Phase Non-Idempotent Mini-Transaction (Scenario 2, Fault I)
	SERVER		-n NODE_1 -m K -f persist_store_v0
	SERVER		-n NODE_2 -m K -f ha_sample_server_v1
	SERVER		-n NODE_3 -m K -f ha_sample_server_v0
	CLIENT		-n NODE_1 -d "NODE_2 NODE_3" -f fi_module_v0 one_phase_non_idempotent_2_i
	SVC_SHUTDOWN	ha_sample_server
	GROUP		mini-transaction putback
	REQ_NODES	3
END

#
# Scenario 3 - (2+ Secondaries)
# In this case we expect the checkpoint to succeed without a problem.  Although
# we'll be faulting one of the secondaries at different steps of the process,
# the checkpoint should succeed, and the invocation should succeed.
#
 
# Test 44
# Scenario 3, Fault A
# TEST 44
TEST	One-Phase Non-Idempotent Mini-Transaction (Scenario 3, Fault A)
	SERVER		-n NODE_1 -m K -f persist_store_v0
	SERVER		-n NODE_2 -m K -f ha_sample_server_v1
	SERVER		-n NODE_3 -m K -f ha_sample_server_v0
	SERVER		-n NODE_4 -m K -f ha_sample_server_v1
	CLIENT		-n NODE_1 -d NODE_2 -f fi_module_v0 one_phase_non_idempotent_3_a
	SVC_SHUTDOWN	ha_sample_server
	GROUP		mini-transaction
	REQ_NODES	4
END

# Test 45
# Scenario 3, Fault B
# TEST 45
TEST	One-Phase Non-Idempotent Mini-Transaction (Scenario 3, Fault B)
	SERVER		-n NODE_1 -m K -f persist_store_v0
	SERVER		-n NODE_2 -m K -f ha_sample_server_v1
	SERVER		-n NODE_3 -m K -f ha_sample_server_v0
	SERVER		-n NODE_4 -m K -f ha_sample_server_v1
	CLIENT		-n NODE_1 -d NODE_2 -f fi_module_v0 one_phase_non_idempotent_3_b
	SVC_SHUTDOWN	ha_sample_server
	GROUP		mini-transaction
	REQ_NODES	4
END

# Test 46
# Scenario 3, Fault C
# TEST 46
TEST	One-Phase Non-Idempotent Mini-Transaction (Scenario 3, Fault C)
	SERVER		-n NODE_1 -m K -f persist_store_v0
	SERVER		-n NODE_2 -m K -f ha_sample_server_v1
	SERVER		-n NODE_3 -m K -f ha_sample_server_v0
	SERVER		-n NODE_4 -m K -f ha_sample_server_v1
	CLIENT		-n NODE_1 -d NODE_2 -f fi_module_v0 one_phase_non_idempotent_3_c
	SVC_SHUTDOWN	ha_sample_server
	GROUP		mini-transaction
	REQ_NODES	4
END

# Test 47
# Scenario 3, Fault D
# TEST 47
TEST	One-Phase Non-Idempotent Mini-Transaction (Scenario 3, Fault D)
	SERVER		-n NODE_1 -m K -f persist_store_v0
	SERVER		-n NODE_2 -m K -f ha_sample_server_v1
	SERVER		-n NODE_3 -m K -f ha_sample_server_v0
	SERVER		-n NODE_4 -m K -f ha_sample_server_v1
	CLIENT		-n NODE_1 -d NODE_3 -f fi_module_v0 one_phase_non_idempotent_3_d
	SVC_SHUTDOWN	ha_sample_server
	GROUP		mini-transaction
	REQ_NODES	4
END

# Test 48
# Scenario 3, Fault E
# TEST 48
TEST	One-Phase Non-Idempotent Mini-Transaction (Scenario 3, Fault E)
	SERVER		-n NODE_1 -m K -f persist_store_v0
	SERVER		-n NODE_2 -m K -f ha_sample_server_v1
	SERVER		-n NODE_3 -m K -f ha_sample_server_v0
	SERVER		-n NODE_4 -m K -f ha_sample_server_v1
	CLIENT		-n NODE_1 -d NODE_3 -f fi_module_v0 one_phase_non_idempotent_3_e
	SVC_SHUTDOWN	ha_sample_server
	GROUP		mini-transaction
	REQ_NODES	4
END

# Test 49
# Scenario 3, Fault F
# TEST 49
TEST	One-Phase Non-Idempotent Mini-Transaction (Scenario 3, Fault F)
	SERVER		-n NODE_1 -m K -f persist_store_v0
	SERVER		-n NODE_2 -m K -f ha_sample_server_v1
	SERVER		-n NODE_3 -m K -f ha_sample_server_v0
	SERVER		-n NODE_4 -m K -f ha_sample_server_v1
	CLIENT		-n NODE_1 -d "NODE_3 NODE_4" -f fi_module_v0 one_phase_non_idempotent_3_f
	SVC_SHUTDOWN	ha_sample_server
	GROUP		mini-transaction
	REQ_NODES	4
END

# Test 50
# Scenario 3, Fault G
# TEST 50
TEST	One-Phase Non-Idempotent Mini-Transaction (Scenario 3, Fault G)
	SERVER		-n NODE_1 -m K -f persist_store_v0
	SERVER		-n NODE_2 -m K -f ha_sample_server_v1
	SERVER		-n NODE_3 -m K -f ha_sample_server_v0
	SERVER		-n NODE_4 -m K -f ha_sample_server_v1
	CLIENT		-n NODE_1 -d NODE_3 -f fi_module_v0 one_phase_non_idempotent_3_g
	SVC_SHUTDOWN	ha_sample_server
	GROUP		mini-transaction
	REQ_NODES	4
END

# Test 51
# Scenario 3, Fault H
# TEST 51
TEST	One-Phase Non-Idempotent Mini-Transaction (Scenario 3, Fault H)
	SERVER		-n NODE_1 -m K -f persist_store_v0
	SERVER		-n NODE_2 -m K -f ha_sample_server_v1
	SERVER		-n NODE_3 -m K -f ha_sample_server_v0
	SERVER		-n NODE_4 -m K -f ha_sample_server_v1
	CLIENT		-n NODE_1 -d NODE_2 -f fi_module_v0 one_phase_non_idempotent_3_h
	SVC_SHUTDOWN	ha_sample_server
	GROUP		mini-transaction
	REQ_NODES	4
END

# Test 52
# Scenario 3, Fault I
# TEST 52
TEST	One-Phase Non-Idempotent Mini-Transaction (Scenario 3, Fault I)
	SERVER		-n NODE_1 -m K -f persist_store_v0
	SERVER		-n NODE_2 -m K -f ha_sample_server_v1
	SERVER		-n NODE_3 -m K -f ha_sample_server_v0
	SERVER		-n NODE_4 -m K -f ha_sample_server_v1
	CLIENT		-n NODE_1 -d "NODE_2 NODE_3 NODE_4" -f fi_module_v0 one_phase_non_idempotent_3_i
	SVC_SHUTDOWN	ha_sample_server
	GROUP		mini-transaction
	REQ_NODES	4
END


# 2-Phase Mini Transactions
# =========================
# Two-phase mini-transactions involve state changes to somthing outside the
# domain of the service.  These mini-transactions involve 2 steps, first a
# checkpoint announcing the intent to take some actions, and then a
# commit (signaling success), or a checkpoint of the failure results.
# 
# The first checkpoint must contain enough information so that a retry can
# determine if the first attempt was succesful or not.
# 
#
# Faults needed:
#        A - No Failure.  Check that 2 phase mini's work w/o failures.
#        B - Fault on primary prior to 1st Checkpoint.
#        C - Fault on secondary before checkpoint is delivered, but after
#            primary has initiated checkpointing.
#        D - Fault on secondary after checkpoint is received but not completed
#        E - Fault on all secondaries after checkpoint is received.
#        F - Fault on secondary after checkpoint has been processed.
#        G - Fault primary after 1st Checkpoint
#
# In Some Scenarios we'll cause the action to fail (Causing a second checkpoint)
# (Causing the action to fail requires a second fault point, within the service)
#        H - Fault primary prior to second checkpoint
#        I - Fault on secondary before 2nd checkpoint is delivered, but after
#            primary has initiated checkpointing.
#        J - Fault on secondary after 2nd checkpoint is received but not
#            completed
#        K - Fault on all secondaries after 2nd checkpoint is received.
#        L - Fault on secondary after checkpoint has been processed.
#        M - Fault primary after 2nd Checkpoint

#
# Scenario 1
# No Secondaries
#

# Test 53
# Scenario 1, Fault A
# TEST 53
TEST	Two-Phase Mini-Transaction (Scenario 1, Fault A)
	SERVER		-n NODE_1 -m K -f persist_store_v0
	SERVER		-n NODE_2 -m K -f ha_sample_server_v1
	CLIENT		-n NODE_1 -f fi_module_v0 two_phase_1_a
	SVC_SHUTDOWN	ha_sample_server
	GROUP		mini-transaction
	REQ_NODES	2
END

# Test 54
# Scenario 1, Fault Q
# TEST 54
TEST	Two-Phase Mini-Transaction (Scenario 1, Fault Q)
	SERVER		-n NODE_1 -m K -f persist_store_v0
	SERVER		-n NODE_2 -m K -f ha_sample_server_v1
	CLIENT		-n NODE_1 -f fi_module_v0 two_phase_1_q
	SVC_SHUTDOWN	ha_sample_server
	GROUP		mini-transaction
	REQ_NODES	2
	SKIP            U UN K32 K64
END

#
# Scenario 2
# 1 Secondary
#

# Test 55
# Scenario 2, Fault A
# TEST 55
TEST	Two-Phase Mini-Transaction (Scenario 2, Fault A)
	SERVER		-n NODE_1 -m K -f persist_store_v0
	SERVER		-n NODE_2 -m K -f ha_sample_server_v1
	SERVER		-n NODE_3 -m K -f ha_sample_server_v0
	CLIENT		-n NODE_1 -f fi_module_v0 two_phase_2_a
	SVC_SHUTDOWN	ha_sample_server
	GROUP		mini-transaction putback
	REQ_NODES	3
	# SKIP		-r "BugId: 4164843" U UN K32 K64
END

# Test 56
# Scenario 2, Fault B
# TEST 56
TEST	Two-Phase Mini-Transaction (Scenario 2, Fault B)
	SERVER		-n NODE_1 -m K -f persist_store_v0
	SERVER		-n NODE_2 -m K -f ha_sample_server_v1
	SERVER		-n NODE_3 -m K -f ha_sample_server_v0
	CLIENT		-n NODE_1 -d NODE_2 -f fi_module_v0 two_phase_2_b
	SVC_SHUTDOWN	ha_sample_server
	GROUP		mini-transaction putback
	REQ_NODES	3
END

# Test 57
# Scenario 2, Fault C
# TEST 57
TEST	Two-Phase Mini-Transaction (Scenario 2, Fault C)
	SERVER		-n NODE_1 -m K -f persist_store_v0
	SERVER		-n NODE_2 -m K -f ha_sample_server_v1
	SERVER		-n NODE_3 -m K -f ha_sample_server_v0
	CLIENT		-n NODE_1 -d NODE_3 -f fi_module_v0 two_phase_2_c
	SVC_SHUTDOWN	ha_sample_server
	GROUP		mini-transaction putback
	REQ_NODES	3
END

# Test 58
# Scenario 2, Fault D
# TEST 58
TEST	Two-Phase Mini-Transaction (Scenario 2, Fault D)
	SERVER		-n NODE_1 -m K -f persist_store_v0
	SERVER		-n NODE_2 -m K -f ha_sample_server_v1
	SERVER		-n NODE_3 -m K -f ha_sample_server_v0
	CLIENT		-n NODE_1 -d NODE_3 -f fi_module_v0 two_phase_2_d
	SVC_SHUTDOWN	ha_sample_server
	GROUP		mini-transaction putback
	REQ_NODES	3
END

# Test 59
# Scenario 2, Fault E
# TEST 59
TEST	Two-Phase Mini-Transaction (Scenario 2, Fault E)
	SERVER		-n NODE_1 -m K -f persist_store_v0
	SERVER		-n NODE_2 -m K -f ha_sample_server_v1
	SERVER		-n NODE_3 -m K -f ha_sample_server_v0
	SERVER		-n NODE_4 -m K -f ha_sample_server_v1
	CLIENT		-n NODE_1 -d "NODE_3 NODE_4" -f fi_module_v0 two_phase_2_e
	SVC_SHUTDOWN	ha_sample_server
	GROUP		mini-transaction putback
	REQ_NODES	4
END

# Test 60
# Scenario 2, Fault F
# TEST 60
TEST	Two-Phase Mini-Transaction (Scenario 2, Fault F)
	SERVER		-n NODE_1 -m K -f persist_store_v0
	SERVER		-n NODE_2 -m K -f ha_sample_server_v1
	SERVER		-n NODE_3 -m K -f ha_sample_server_v0
	CLIENT		-n NODE_1 -d NODE_3 -f fi_module_v0 two_phase_2_f
	SVC_SHUTDOWN	ha_sample_server
	GROUP		mini-transaction putback
	REQ_NODES	3
END

# Test 61
# Scenario 2, Fault G
# TEST 61
TEST	Two-Phase Mini-Transaction (Scenario 2, Fault G)
	SERVER		-n NODE_1 -m K -f persist_store_v0
	SERVER		-n NODE_2 -m K -f ha_sample_server_v1
	SERVER		-n NODE_3 -m K -f ha_sample_server_v0
	CLIENT		-n NODE_1 -d NODE_2 -f fi_module_v0 two_phase_2_g
	SVC_SHUTDOWN	ha_sample_server
	GROUP		mini-transaction putback
	REQ_NODES	3
END

# Test 62
# Scenario 2, Fault H
# TEST 62
TEST	Two-Phase Mini-Transaction (Scenario 2, Fault H)
	SERVER		-n NODE_1 -m K -f persist_store_v0
	SERVER		-n NODE_2 -m K -f ha_sample_server_v1
	SERVER		-n NODE_3 -m K -f ha_sample_server_v0
	CLIENT		-n NODE_1 -d NODE_2 -f fi_module_v0 two_phase_2_h
	SVC_SHUTDOWN	ha_sample_server
	GROUP		mini-transaction putback
	REQ_NODES	3
END

# Test 63
# Scenario 2, Fault M
# TEST 63
TEST	Two-Phase Mini-Transaction (Scenario 2, Fault M)
	SERVER		-n NODE_1 -m K -f persist_store_v0
	SERVER		-n NODE_2 -m K -f ha_sample_server_v1
	SERVER		-n NODE_3 -m K -f ha_sample_server_v0
	CLIENT		-n NODE_1 -d NODE_2 -f fi_module_v0 two_phase_2_m
	SVC_SHUTDOWN	ha_sample_server
	GROUP		mini-transaction putback
	REQ_NODES	3
END

# Test 64
# Scenario 2, Fault N
# TEST 64
TEST	Two-Phase Mini-Transaction (Scenario 2, Fault N)
	SERVER		-n NODE_1 -m K -f persist_store_v0
	SERVER		-n NODE_2 -m K -f ha_sample_server_v1
	SERVER		-n NODE_3 -m K -f ha_sample_server_v0
	CLIENT		-n NODE_1 -d NODE_2 -f fi_module_v0 two_phase_2_n
	SVC_SHUTDOWN	ha_sample_server
	GROUP		mini-transaction putback
	REQ_NODES	3
END

# Test 65
# Scenario 2, Fault O
# TEST 65
TEST	Two-Phase Mini-Transaction (Scenario 2, Fault O)
	SERVER		-n NODE_1 -m K -f persist_store_v0
	SERVER		-n NODE_2 -m K -f ha_sample_server_v1
	SERVER		-n NODE_3 -m K -f ha_sample_server_v0
	CLIENT		-n NODE_1 -d NODE_2 -f fi_module_v0 two_phase_2_o
	SVC_SHUTDOWN	ha_sample_server
	GROUP		mini-transaction putback
	REQ_NODES	3
END

# Test 66
# Scenario 2, Fault P
# TEST 66
TEST	Two-Phase Mini-Transaction (Scenario 2, Fault P)
	SERVER		-n NODE_1 -m K -f persist_store_v0
	SERVER		-n NODE_2 -m K -f ha_sample_server_v1
	SERVER		-n NODE_3 -m K -f ha_sample_server_v0
	CLIENT		-n NODE_1 -d NODE_2 -f fi_module_v0 two_phase_2_p
	SVC_SHUTDOWN	ha_sample_server
	GROUP		mini-transaction putback
	REQ_NODES	3
END

# Test 67
# Scenario 2, Fault Q
# TEST 67
TEST	Two-Phase Mini-Transaction (Scenario 2, Fault Q)
	SERVER		-n NODE_1 -m K -f persist_store_v0
	SERVER		-n NODE_2 -m K -f ha_sample_server_v1
	SERVER		-n NODE_3 -m K -f ha_sample_server_v0
	CLIENT		-n NODE_1 -f fi_module_v0 two_phase_2_q
	SVC_SHUTDOWN	ha_sample_server
	GROUP		mini-transaction putback
	REQ_NODES	3
	SKIP            U UN K32 K64
END

# Secondary --> Primary
# =====================
# //
# // If new_primary is set, this routine is entered as a switchover.
# // Reconfiguration protocol:
# //
# //      (1)  if switchover, freeze primary invocations on current primary.
# //      (2)  if switchover, freeze service invocations on each rma.
# //      (3)  if switchover, invoke disable_unreferenced on current primary.
# //      (4)  if switchover, disconnect clients on all rmas.
# //      (5)  if switchover, invoke become_secondary on current primary.
# //      (5)  if failover, wait for cmm step 4 (service frozen).
# //      (6)  if switchover, wait_for_frozen on current (now "old") primary.
# //      (7)  if failover, select primary, and call mark_down on each
# //              rma if no repl_prov is available to be primary.
# //      (8)  invoke become_primary on new primary.
# //      (9)  new_primary on each rma.
# //      (10) enable_unreferenced on new primary.
# //      (11) unfreeze_primary on new primary.
# //      (12) unfreeze_service_invos on each rma.
# //
# // (This comment can be found in before member reconfigure)
# 
# The Fault points that we'll implement are:
# 
#	A - No Failure.
#	B - Fail old primary before (1)
#	C - Fail old primary before (2)
#	D - Fail old primary before (3)
#	E - Fail old primary before (4)
#	F - Fail old primary before (5)
#	G - Fail old primary after (5)
#	H - Fail new primary before (1)
#	I - Fail new primary before (2)
#	J - Fail new primary before (3)
#	K - Fail new primary before (4)
#	L - Fail new primary before (5)
#	M - Fail new primary before (6)
#	N - Fail new primary before (7)
#	O - Fail new primary before (8)
#	P - Fail new primary before (9)
#	Q - Fail new primary before (10)
#	R - Fail new primary before (11)
#	S - Fail new primary before (12)
#	T - Fail new primary after (12), before we signal the root obj.
#	U - Fail new primary after (12), after we signal the root obj.
#	

# Test 68
# Scenario 1, Fault A
# TEST 68
TEST	Switchover Secondary --> Primary (Scenario 1, Fault A)
	SERVER		-n NODE_1 -m K -f persist_store_v0
	SERVER		-n NODE_2 -m K -f ha_sample_server_v1
	SERVER		-n NODE_3 -m K -f ha_sample_server_v0
	CLIENT		-n NODE_1 -f fi_module_v0 switchover_sec_pri_1_a
	SVC_SHUTDOWN	ha_sample_server
	GROUP		switchover
	REQ_NODES	3
END

# Test 69
# Scenario 1, Fault B
# TEST 69
TEST	Switchover Secondary --> Primary (Scenario 1, Fault B)
	SERVER		-n NODE_1 -m K -f persist_store_v0
	SERVER		-n NODE_2 -m K -f ha_sample_server_v1
	SERVER		-n NODE_3 -m K -f ha_sample_server_v0
	CLIENT		-n NODE_1 -d NODE_2 -f fi_module_v0 switchover_sec_pri_1_b
	SVC_SHUTDOWN	ha_sample_server
	GROUP		switchover
	REQ_NODES	3
END

# Test 70
# Scenario 1, Fault C
# TEST 70
TEST	Switchover Secondary --> Primary (Scenario 1, Fault C)
	SERVER		-n NODE_1 -m K -f persist_store_v0
	SERVER		-n NODE_2 -m K -f ha_sample_server_v1
	SERVER		-n NODE_3 -m K -f ha_sample_server_v0
	CLIENT		-n NODE_1 -d NODE_2 -f fi_module_v0 switchover_sec_pri_1_c
	SVC_SHUTDOWN	ha_sample_server
	GROUP		switchover
	REQ_NODES	3
END

# Test 71
# Scenario 1, Fault D
# TEST 71
TEST	Switchover Secondary --> Primary (Scenario 1, Fault D)
	SERVER		-n NODE_1 -m K -f persist_store_v0
	SERVER		-n NODE_2 -m K -f ha_sample_server_v1
	SERVER		-n NODE_3 -m K -f ha_sample_server_v0
	CLIENT		-n NODE_1 -d NODE_2 -f fi_module_v0 switchover_sec_pri_1_d
	SVC_SHUTDOWN	ha_sample_server
	GROUP		switchover
	REQ_NODES	3
END

# Test 72
# Scenario 1, Fault E
# TEST 72
TEST	Switchover Secondary --> Primary (Scenario 1, Fault E)
	SERVER		-n NODE_1 -m K -f persist_store_v0
	SERVER		-n NODE_2 -m K -f ha_sample_server_v1
	SERVER		-n NODE_3 -m K -f ha_sample_server_v0
	CLIENT		-n NODE_1 -d NODE_2 -f fi_module_v0 switchover_sec_pri_1_e
	SVC_SHUTDOWN	ha_sample_server
	GROUP		switchover
	REQ_NODES	3
END

# Test 73
# Scenario 1, Fault F
# TEST 73
TEST	Switchover Secondary --> Primary (Scenario 1, Fault F)
	SERVER		-n NODE_1 -m K -f persist_store_v0
	SERVER		-n NODE_2 -m K -f ha_sample_server_v1
	SERVER		-n NODE_3 -m K -f ha_sample_server_v0
	CLIENT		-n NODE_1 -d NODE_2 -f fi_module_v0 switchover_sec_pri_1_f
	SVC_SHUTDOWN	ha_sample_server
	GROUP		switchover
	REQ_NODES	3
END

# Test 74
# Scenario 1, Fault G
# TEST 74
TEST	Switchover Secondary --> Primary (Scenario 1, Fault G)
	SERVER		-n NODE_1 -m K -f persist_store_v0
	SERVER		-n NODE_2 -m K -f ha_sample_server_v1
	SERVER		-n NODE_3 -m K -f ha_sample_server_v0
	CLIENT		-n NODE_1 -d NODE_2 -f fi_module_v0 switchover_sec_pri_1_g
	SVC_SHUTDOWN	ha_sample_server
	GROUP		switchover
	REQ_NODES	3
END

# Test 75
# Scenario 1, Fault H
# TEST 75
TEST	Switchover Secondary --> Primary (Scenario 1, Fault H)
	SERVER		-n NODE_1 -m K -f persist_store_v0
	SERVER		-n NODE_2 -m K -f ha_sample_server_v1
	SERVER		-n NODE_3 -m K -f ha_sample_server_v0
	CLIENT		-n NODE_1 -d NODE_3 -f fi_module_v0 switchover_sec_pri_1_h
	SVC_SHUTDOWN	ha_sample_server
	GROUP		switchover
	REQ_NODES	3
END

# Test 76
# Scenario 1, Fault I
# TEST 76
TEST	Switchover Secondary --> Primary (Scenario 1, Fault I)
	SERVER		-n NODE_1 -m K -f persist_store_v0
	SERVER		-n NODE_2 -m K -f ha_sample_server_v1
	SERVER		-n NODE_3 -m K -f ha_sample_server_v0
	CLIENT		-n NODE_1 -d NODE_3 -f fi_module_v0 switchover_sec_pri_1_i
	SVC_SHUTDOWN	ha_sample_server
	GROUP		switchover
	REQ_NODES	3
END

# Test 77
# Scenario 1, Fault J
# TEST 77
TEST	Switchover Secondary --> Primary (Scenario 1, Fault J)
	SERVER		-n NODE_1 -m K -f persist_store_v0
	SERVER		-n NODE_2 -m K -f ha_sample_server_v1
	SERVER		-n NODE_3 -m K -f ha_sample_server_v0
	CLIENT		-n NODE_1 -d NODE_3 -f fi_module_v0 switchover_sec_pri_1_j
	SVC_SHUTDOWN	ha_sample_server
	GROUP		switchover
	REQ_NODES	3
END

# Test 78
# Scenario 1, Fault K
# TEST 78
TEST	Switchover Secondary --> Primary (Scenario 1, Fault K)
	SERVER		-n NODE_1 -m K -f persist_store_v0
	SERVER		-n NODE_2 -m K -f ha_sample_server_v1
	SERVER		-n NODE_3 -m K -f ha_sample_server_v0
	CLIENT		-n NODE_1 -d NODE_3 -f fi_module_v0 switchover_sec_pri_1_k
	SVC_SHUTDOWN	ha_sample_server
	GROUP		switchover
	REQ_NODES	3
END

# Test 79
# Scenario 1, Fault L
# TEST 79
TEST	Switchover Secondary --> Primary (Scenario 1, Fault L)
	SERVER		-n NODE_1 -m K -f persist_store_v0
	SERVER		-n NODE_2 -m K -f ha_sample_server_v1
	SERVER		-n NODE_3 -m K -f ha_sample_server_v0
	CLIENT		-n NODE_1 -d NODE_3 -f fi_module_v0 switchover_sec_pri_1_l
	SVC_SHUTDOWN	ha_sample_server
	GROUP		switchover
	REQ_NODES	3
END

# Test 80
# Scenario 1, Fault M
# TEST 80
TEST	Switchover Secondary --> Primary (Scenario 1, Fault M)
	SERVER		-n NODE_1 -m K -f persist_store_v0
	SERVER		-n NODE_2 -m K -f ha_sample_server_v1
	SERVER		-n NODE_3 -m K -f ha_sample_server_v0
	CLIENT		-n NODE_1 -d NODE_3 -f fi_module_v0 switchover_sec_pri_1_m
	SVC_SHUTDOWN	ha_sample_server
	GROUP		switchover
	REQ_NODES	3
END

# Test 81
# Scenario 1, Fault N
# TEST 81
TEST	Switchover Secondary --> Primary (Scenario 1, Fault N)
	SERVER		-n NODE_1 -m K -f persist_store_v0
	SERVER		-n NODE_2 -m K -f ha_sample_server_v1
	SERVER		-n NODE_3 -m K -f ha_sample_server_v0
	CLIENT		-n NODE_1 -d NODE_3 -f fi_module_v0 switchover_sec_pri_1_n
	SVC_SHUTDOWN	ha_sample_server
	GROUP		switchover
	REQ_NODES	3
END

# Test 82
# Scenario 1, Fault O
# TEST 82
TEST	Switchover Secondary --> Primary (Scenario 1, Fault O)
	SERVER		-n NODE_1 -m K -f persist_store_v0
	SERVER		-n NODE_2 -m K -f ha_sample_server_v1
	SERVER		-n NODE_3 -m K -f ha_sample_server_v0
	CLIENT		-n NODE_1 -d NODE_3 -f fi_module_v0 switchover_sec_pri_1_o
	SVC_SHUTDOWN	ha_sample_server
	GROUP		switchover
	REQ_NODES	3
END

# Test 83
# Scenario 1, Fault P
# TEST 83
TEST	Switchover Secondary --> Primary (Scenario 1, Fault P)
	SERVER		-n NODE_1 -m K -f persist_store_v0
	SERVER		-n NODE_2 -m K -f ha_sample_server_v1
	SERVER		-n NODE_3 -m K -f ha_sample_server_v0
	CLIENT		-n NODE_1 -d NODE_3 -f fi_module_v0 switchover_sec_pri_1_p
	SVC_SHUTDOWN	ha_sample_server
	GROUP		switchover
	REQ_NODES	3
END

# Test 84
# Scenario 1, Fault Q
# TEST 84
TEST	Switchover Secondary --> Primary (Scenario 1, Fault Q)
	SERVER		-n NODE_1 -m K -f persist_store_v0
	SERVER		-n NODE_2 -m K -f ha_sample_server_v1
	SERVER		-n NODE_3 -m K -f ha_sample_server_v0
	CLIENT		-n NODE_1 -d NODE_3 -f fi_module_v0 switchover_sec_pri_1_q
	SVC_SHUTDOWN	ha_sample_server
	GROUP		switchover
	REQ_NODES	3
END

# Test 85
# Scenario 1, Fault R
# TEST 85
TEST	Switchover Secondary --> Primary (Scenario 1, Fault R)
	SERVER		-n NODE_1 -m K -f persist_store_v0
	SERVER		-n NODE_2 -m K -f ha_sample_server_v1
	SERVER		-n NODE_3 -m K -f ha_sample_server_v0
	CLIENT		-n NODE_1 -d NODE_3 -f fi_module_v0 switchover_sec_pri_1_r
	SVC_SHUTDOWN	ha_sample_server
	GROUP		switchover
	REQ_NODES	3
END

# Test 86
# Scenario 1, Fault S
# TEST 86
TEST	Switchover Secondary --> Primary (Scenario 1, Fault S)
	SERVER		-n NODE_1 -m K -f persist_store_v0
	SERVER		-n NODE_2 -m K -f ha_sample_server_v1
	SERVER		-n NODE_3 -m K -f ha_sample_server_v0
	CLIENT		-n NODE_1 -d NODE_3 -f fi_module_v0 switchover_sec_pri_1_s
	SVC_SHUTDOWN	ha_sample_server
	GROUP		switchover
	REQ_NODES	3
END

# Test 87
# Scenario 1, Fault T
# TEST 87
TEST	Switchover Secondary --> Primary (Scenario 1, Fault T)
	SERVER		-n NODE_1 -m K -f persist_store_v0
	SERVER		-n NODE_2 -m K -f ha_sample_server_v1
	SERVER		-n NODE_3 -m K -f ha_sample_server_v0
	CLIENT		-n NODE_1 -d NODE_3 -f fi_module_v0 switchover_sec_pri_1_t
	SVC_SHUTDOWN	ha_sample_server
	GROUP		switchover
	REQ_NODES	3
END

#
# Scenario 2 (2 Secondaries)
#

# Test 88
# Scenario 2, Fault A
# TEST 88
TEST	Switchover Secondary --> Primary (Scenario 2, Fault A)
	SERVER		-n NODE_1 -m K -f persist_store_v0
	SERVER		-n NODE_2 -m K -f ha_sample_server_v1
	SERVER		-n NODE_3 -m K -f ha_sample_server_v0
	SERVER		-n NODE_4 -m K -f ha_sample_server_v1
	CLIENT		-n NODE_1 -f fi_module_v0 switchover_sec_pri_2_a
	SVC_SHUTDOWN	ha_sample_server
	GROUP		switchover putback
	REQ_NODES	4
END

# Test 89
# Scenario 2, Fault B
# TEST 89
TEST	Switchover Secondary --> Primary (Scenario 2, Fault B)
	SERVER		-n NODE_1 -m K -f persist_store_v0
	SERVER		-n NODE_2 -m K -f ha_sample_server_v1
	SERVER		-n NODE_3 -m K -f ha_sample_server_v0
	SERVER		-n NODE_4 -m K -f ha_sample_server_v1
	CLIENT		-n NODE_1 -d NODE_2 -f fi_module_v0 switchover_sec_pri_2_b
	SVC_SHUTDOWN	ha_sample_server
	GROUP		switchover putback
	REQ_NODES	4
END

# Test 90
# Scenario 2, Fault C
# TEST 90
TEST	Switchover Secondary --> Primary (Scenario 2, Fault C)
	SERVER		-n NODE_1 -m K -f persist_store_v0
	SERVER		-n NODE_2 -m K -f ha_sample_server_v1
	SERVER		-n NODE_3 -m K -f ha_sample_server_v0
	SERVER		-n NODE_4 -m K -f ha_sample_server_v1
	CLIENT		-n NODE_1 -d NODE_2 -f fi_module_v0 switchover_sec_pri_2_c
	SVC_SHUTDOWN	ha_sample_server
	GROUP		switchover putback
	REQ_NODES	4
END

# Test 91
# Scenario 2, Fault D
# TEST 91
TEST	Switchover Secondary --> Primary (Scenario 2, Fault D)
	SERVER		-n NODE_1 -m K -f persist_store_v0
	SERVER		-n NODE_2 -m K -f ha_sample_server_v1
	SERVER		-n NODE_3 -m K -f ha_sample_server_v0
	SERVER		-n NODE_4 -m K -f ha_sample_server_v1
	CLIENT		-n NODE_1 -d NODE_2 -f fi_module_v0 switchover_sec_pri_2_d
	SVC_SHUTDOWN	ha_sample_server
	GROUP		switchover putback
	REQ_NODES	4
END

# Test 92
# Scenario 2, Fault E
# TEST 92
TEST	Switchover Secondary --> Primary (Scenario 2, Fault E)
	SERVER		-n NODE_1 -m K -f persist_store_v0
	SERVER		-n NODE_2 -m K -f ha_sample_server_v1
	SERVER		-n NODE_3 -m K -f ha_sample_server_v0
	SERVER		-n NODE_4 -m K -f ha_sample_server_v1
	CLIENT		-n NODE_1 -d NODE_2 -f fi_module_v0 switchover_sec_pri_2_e
	SVC_SHUTDOWN	ha_sample_server
	GROUP		switchover putback
	REQ_NODES	4
END

# Test 93
# Scenario 2, Fault F
# TEST 93
TEST	Switchover Secondary --> Primary (Scenario 2, Fault F)
	SERVER		-n NODE_1 -m K -f persist_store_v0
	SERVER		-n NODE_2 -m K -f ha_sample_server_v1
	SERVER		-n NODE_3 -m K -f ha_sample_server_v0
	SERVER		-n NODE_4 -m K -f ha_sample_server_v1
	CLIENT		-n NODE_1 -d NODE_2 -f fi_module_v0 switchover_sec_pri_2_f
	SVC_SHUTDOWN	ha_sample_server
	GROUP		switchover putback
	REQ_NODES	4
END

# Test 94
# Scenario 2, Fault G
# TEST 94
TEST	Switchover Secondary --> Primary (Scenario 2, Fault G)
	SERVER		-n NODE_1 -m K -f persist_store_v0
	SERVER		-n NODE_2 -m K -f ha_sample_server_v1
	SERVER		-n NODE_3 -m K -f ha_sample_server_v0
	SERVER		-n NODE_4 -m K -f ha_sample_server_v1
	CLIENT		-n NODE_1 -d NODE_2 -f fi_module_v0 switchover_sec_pri_2_g
	SVC_SHUTDOWN	ha_sample_server
	GROUP		switchover putback
	REQ_NODES	4
END

# Test 95
# Scenario 2, Fault H
# TEST 95
TEST	Switchover Secondary --> Primary (Scenario 2, Fault H)
	SERVER		-n NODE_1 -m K -f persist_store_v0
	SERVER		-n NODE_2 -m K -f ha_sample_server_v1
	SERVER		-n NODE_3 -m K -f ha_sample_server_v0
	SERVER		-n NODE_4 -m K -f ha_sample_server_v1
	CLIENT		-n NODE_1 -d NODE_3 -f fi_module_v0 switchover_sec_pri_2_h
	SVC_SHUTDOWN	ha_sample_server
	GROUP		switchover putback
	REQ_NODES	4
END

# Test 96
# Scenario 2, Fault I
# TEST 96
TEST	Switchover Secondary --> Primary (Scenario 2, Fault I)
	SERVER		-n NODE_1 -m K -f persist_store_v0
	SERVER		-n NODE_2 -m K -f ha_sample_server_v1
	SERVER		-n NODE_3 -m K -f ha_sample_server_v0
	SERVER		-n NODE_4 -m K -f ha_sample_server_v1
	CLIENT		-n NODE_1 -d NODE_3 -f fi_module_v0 switchover_sec_pri_2_i
	SVC_SHUTDOWN	ha_sample_server
	GROUP		switchover putback
	REQ_NODES	4
END

# Test 97
# Scenario 2, Fault J
# TEST 97
TEST	Switchover Secondary --> Primary (Scenario 2, Fault J)
	SERVER		-n NODE_1 -m K -f persist_store_v0
	SERVER		-n NODE_2 -m K -f ha_sample_server_v1
	SERVER		-n NODE_3 -m K -f ha_sample_server_v0
	SERVER		-n NODE_4 -m K -f ha_sample_server_v1
	CLIENT		-n NODE_1 -d NODE_3 -f fi_module_v0 switchover_sec_pri_2_j
	SVC_SHUTDOWN	ha_sample_server
	GROUP		switchover putback
	REQ_NODES	4
END

# Test 98
# Scenario 2, Fault K
# TEST 98
TEST	Switchover Secondary --> Primary (Scenario 2, Fault K)
	SERVER		-n NODE_1 -m K -f persist_store_v0
	SERVER		-n NODE_2 -m K -f ha_sample_server_v1
	SERVER		-n NODE_3 -m K -f ha_sample_server_v0
	SERVER		-n NODE_4 -m K -f ha_sample_server_v1
	CLIENT		-n NODE_1 -d NODE_3 -f fi_module_v0 switchover_sec_pri_2_k
	SVC_SHUTDOWN	ha_sample_server
	GROUP		switchover putback
	REQ_NODES	4
END

# Test 99
# Scenario 2, Fault L
# TEST 99
TEST	Switchover Secondary --> Primary (Scenario 2, Fault L)
	SERVER		-n NODE_1 -m K -f persist_store_v0
	SERVER		-n NODE_2 -m K -f ha_sample_server_v1
	SERVER		-n NODE_3 -m K -f ha_sample_server_v0
	SERVER		-n NODE_4 -m K -f ha_sample_server_v1
	CLIENT		-n NODE_1 -d NODE_3 -f fi_module_v0 switchover_sec_pri_2_l
	SVC_SHUTDOWN	ha_sample_server
	GROUP		switchover putback
	REQ_NODES	4
END

# Test 100
# Scenario 2, Fault M
# TEST 100
TEST	Switchover Secondary --> Primary (Scenario 2, Fault M)
	SERVER		-n NODE_1 -m K -f persist_store_v0
	SERVER		-n NODE_2 -m K -f ha_sample_server_v1
	SERVER		-n NODE_3 -m K -f ha_sample_server_v0
	SERVER		-n NODE_4 -m K -f ha_sample_server_v1
	CLIENT		-n NODE_1 -d NODE_3 -f fi_module_v0 switchover_sec_pri_2_m
	SVC_SHUTDOWN	ha_sample_server
	GROUP		switchover putback
	REQ_NODES	4
END

# Test 101
# Scenario 2, Fault N
# TEST 101
TEST	Switchover Secondary --> Primary (Scenario 2, Fault N)
	SERVER		-n NODE_1 -m K -f persist_store_v0
	SERVER		-n NODE_2 -m K -f ha_sample_server_v1
	SERVER		-n NODE_3 -m K -f ha_sample_server_v0
	SERVER		-n NODE_4 -m K -f ha_sample_server_v1
	CLIENT		-n NODE_1 -d NODE_3 -f fi_module_v0 switchover_sec_pri_2_n
	SVC_SHUTDOWN	ha_sample_server
	GROUP		switchover putback
	REQ_NODES	4
END

# Test 102
# Scenario 2, Fault O
# TEST 102
TEST	Switchover Secondary --> Primary (Scenario 2, Fault O)
	SERVER		-n NODE_1 -m K -f persist_store_v0
	SERVER		-n NODE_2 -m K -f ha_sample_server_v1
	SERVER		-n NODE_3 -m K -f ha_sample_server_v0
	SERVER		-n NODE_4 -m K -f ha_sample_server_v1
	CLIENT		-n NODE_1 -d NODE_3 -f fi_module_v0 switchover_sec_pri_2_o
	SVC_SHUTDOWN	ha_sample_server
	GROUP		switchover putback
	REQ_NODES	4
END

# Test 103
# Scenario 2, Fault P
# TEST 103
TEST	Switchover Secondary --> Primary (Scenario 2, Fault P)
	SERVER		-n NODE_1 -m K -f persist_store_v0
	SERVER		-n NODE_2 -m K -f ha_sample_server_v1
	SERVER		-n NODE_3 -m K -f ha_sample_server_v0
	SERVER		-n NODE_4 -m K -f ha_sample_server_v1
	CLIENT		-n NODE_1 -d NODE_3 -f fi_module_v0 switchover_sec_pri_2_p
	SVC_SHUTDOWN	ha_sample_server
	GROUP		switchover putback
	REQ_NODES	4
END

# Test 104
# Scenario 2, Fault Q
# TEST 104
TEST	Switchover Secondary --> Primary (Scenario 2, Fault Q)
	SERVER		-n NODE_1 -m K -f persist_store_v0
	SERVER		-n NODE_2 -m K -f ha_sample_server_v1
	SERVER		-n NODE_3 -m K -f ha_sample_server_v0
	SERVER		-n NODE_4 -m K -f ha_sample_server_v1
	CLIENT		-n NODE_1 -d NODE_3 -f fi_module_v0 switchover_sec_pri_2_q
	SVC_SHUTDOWN	ha_sample_server
	GROUP		switchover putback
	REQ_NODES	4
END

# Test 105
# Scenario 2, Fault R
# TEST 105
TEST	Switchover Secondary --> Primary (Scenario 2, Fault R)
	SERVER		-n NODE_1 -m K -f persist_store_v0
	SERVER		-n NODE_2 -m K -f ha_sample_server_v1
	SERVER		-n NODE_3 -m K -f ha_sample_server_v0
	SERVER		-n NODE_4 -m K -f ha_sample_server_v1
	CLIENT		-n NODE_1 -d NODE_3 -f fi_module_v0 switchover_sec_pri_2_r
	SVC_SHUTDOWN	ha_sample_server
	GROUP		switchover putback
	REQ_NODES	4
END

# Test 106
# Scenario 2, Fault S
# TEST 106
TEST	Switchover Secondary --> Primary (Scenario 2, Fault S)
	SERVER		-n NODE_1 -m K -f persist_store_v0
	SERVER		-n NODE_2 -m K -f ha_sample_server_v1
	SERVER		-n NODE_3 -m K -f ha_sample_server_v0
	SERVER		-n NODE_4 -m K -f ha_sample_server_v1
	CLIENT		-n NODE_1 -d NODE_3 -f fi_module_v0 switchover_sec_pri_2_s
	SVC_SHUTDOWN	ha_sample_server
	GROUP		switchover putback
	REQ_NODES	4
END

# Test 107
# Scenario 2, Fault T
# TEST 107
TEST	Switchover Secondary --> Primary (Scenario 2, Fault T)
	SERVER		-n NODE_1 -m K -f persist_store_v0
	SERVER		-n NODE_2 -m K -f ha_sample_server_v1
	SERVER		-n NODE_3 -m K -f ha_sample_server_v0
	SERVER		-n NODE_4 -m K -f ha_sample_server_v1
	CLIENT		-n NODE_1 -d NODE_3 -f fi_module_v0 switchover_sec_pri_2_t
	SVC_SHUTDOWN	ha_sample_server
	GROUP		switchover putback
	REQ_NODES	4
END

